{
    "experiments": [
        {
            "completed": 128,
            "description": "Francesc",
            "failed": 0,
            "hpc": "LUMI",
            "id": 14,
            "modified": "2024-01-19 12:12:23",
            "name": "a0it",
            "queuing": 0,
            "running": 0,
            "status": "RUNNING",
            "submitted": 0,
            "suspended": 0,
            "total": 874,
            "user": "froura",
            "version": "4.1.0",
            "wrapper": null
        },
        {
            "completed": 128,
            "description": "Francesc",
            "failed": 0,
            "hpc": "LUMI",
            "id": 14,
            "modified": "2024-01-19 12:12:23",
            "name": "a0zj",
            "queuing": 0,
            "running": 0,
            "status": "RUNNING",
            "submitted": 0,
            "suspended": 0,
            "total": 874,
            "user": "froura",
            "version": "4.1.0",
            "wrapper": null
        },
        {
            "completed": 128,
            "description": "Francesc",
            "failed": 0,
            "hpc": "LUMI",
            "id": 14,
            "modified": "2024-01-19 12:12:23",
            "name": "t013",
            "queuing": 0,
            "running": 0,
            "status": "RUNNING",
            "submitted": 0,
            "suspended": 0,
            "total": 874,
            "user": "froura",
            "version": "4.1.0",
            "wrapper": null
        },
        {
            "completed": 128,
            "description": "Francesc",
            "failed": 0,
            "hpc": "LUMI",
            "id": 14,
            "modified": "2024-01-19 12:12:23",
            "name": "a007",
            "queuing": 0,
            "running": 0,
            "status": "RUNNING",
            "submitted": 0,
            "suspended": 0,
            "total": 874,
            "user": "froura",
            "version": "4.1.0",
            "wrapper": null
        },
        {
            "completed": 128,
            "description": "Francesc",
            "failed": 0,
            "hpc": "LUMI",
            "id": 14,
            "modified": "2024-01-19 12:12:23",
            "name": "b123",
            "queuing": 0,
            "running": 0,
            "status": "RUNNING",
            "submitted": 0,
            "suspended": 0,
            "total": 874,
            "user": "froura",
            "version": "4.1.0",
            "wrapper": null
        },
        {
            "completed": 128,
            "description": "Francesc",
            "failed": 0,
            "hpc": "LUMI",
            "id": 14,
            "modified": "2024-01-19 12:12:23",
            "name": "at02",
            "queuing": 0,
            "running": 0,
            "status": "RUNNING",
            "submitted": 0,
            "suspended": 0,
            "total": 874,
            "user": "froura",
            "version": "4.1.0",
            "wrapper": null
        },
        {
            "completed": 128,
            "description": "Francesc",
            "failed": 0,
            "hpc": "LUMI",
            "id": 14,
            "modified": "2024-01-19 12:12:23",
            "name": "o001",
            "queuing": 0,
            "running": 0,
            "status": "RUNNING",
            "submitted": 0,
            "suspended": 0,
            "total": 874,
            "user": "froura",
            "version": "4.1.0",
            "wrapper": null
        },
        {
            "completed": 128,
            "description": "Francesc",
            "failed": 0,
            "hpc": "LUMI",
            "id": 14,
            "modified": "2024-01-19 12:12:23",
            "name": "a4jt",
            "queuing": 0,
            "running": 0,
            "status": "RUNNING",
            "submitted": 0,
            "suspended": 0,
            "total": 874,
            "user": "froura",
            "version": "4.1.0",
            "wrapper": null
        },
        {
            "completed": 128,
            "description": "Francesc",
            "failed": 0,
            "hpc": "LUMI",
            "id": 14,
            "modified": "2024-01-19 12:12:23",
            "name": "all2",
            "queuing": 0,
            "running": 0,
            "status": "RUNNING",
            "submitted": 0,
            "suspended": 0,
            "total": 874,
            "user": "froura",
            "version": "4.1.0",
            "wrapper": null
        },
        {
            "completed": 128,
            "description": "Francesc",
            "failed": 0,
            "hpc": "LUMI",
            "id": 14,
            "modified": "2024-01-19 12:12:23",
            "name": "a94a",
            "queuing": 0,
            "running": 0,
            "status": "RUNNING",
            "submitted": 0,
            "suspended": 0,
            "total": 874,
            "user": "froura",
            "version": "4.1.0",
            "wrapper": null
        },
        {
            "completed": 128,
            "description": "Francesc",
            "failed": 0,
            "hpc": "LUMI",
            "id": 14,
            "modified": "2024-01-19 12:12:23",
            "name": "a02v",
            "queuing": 0,
            "running": 0,
            "status": "RUNNING",
            "submitted": 0,
            "suspended": 0,
            "total": 874,
            "user": "froura",
            "version": "4.1.0",
            "wrapper": null
        },
        {
            "completed": 128,
            "description": "Francesc",
            "failed": 0,
            "hpc": "LUMI",
            "id": 14,
            "modified": "2024-01-19 12:12:23",
            "name": "tb02",
            "queuing": 0,
            "running": 0,
            "status": "RUNNING",
            "submitted": 0,
            "suspended": 0,
            "total": 874,
            "user": "froura",
            "version": "4.1.0",
            "wrapper": null
        }
    ],
    "pagination": {
        "page": 1,
        "page_items": 12,
        "page_size": 12,
        "total_items": 30,
        "total_pages": 3
    }
}